@startuml

object nsigma_0 {
[]
	X_other: v
}

object jobads_1 {
[r, w, i]
}

object X_nsigmaJobAdId_2 {
[w]
	id: v
	title: v
	description: v
	type: v
	start: v
	end: v
	technologies: v
	difficulty: v
	remuneration: v
	form: v
	done: v
	X_other: v
}
jobads_1 *-- "*" X_nsigmaJobAdId_2
nsigma_0 *-- "1" jobads_1

@enduml
